{
  "info": {
    "_postman_id": "5a71baaf-778c-450d-a843-dcb5f6ea277c",
    "name": "request",
    "schema": "https://schema.getpostman.com/json/collection/v2.1.0/collection.json"
  },
  "item": [
    {
      "name": "elastic_search",
      "item": [
        {
          "name": "创建es索引",
          "protocolProfileBehavior": {
            "disabledSystemHeaders": {}
          },
          "request": {
            "method": "PUT",
            "header": [],
            "body": {
              "mode": "raw",
              "raw": "{\r\n    \r\n}",
              "options": {
                "raw": {
                  "language": "json"
                }
              }
            },
            "url": {
              "raw": "http://localhost:8080/es/createIndex?index=springtest",
              "protocol": "http",
              "host": [
                "localhost"
              ],
              "port": "8080",
              "path": [
                "es",
                "createIndex"
              ],
              "query": [
                {
                  "key": "index",
                  "value": "springtest"
                }
              ]
            }
          },
          "response": []
        },
        {
          "name": "创建es文档",
          "request": {
            "method": "PUT",
            "header": [],
            "body": {
              "mode": "raw",
              "raw": "{\r\n    \"id\":1,\r\n    \"name\": \"zhangssan\",\r\n    \"age\": 25\r\n}",
              "options": {
                "raw": {
                  "language": "json"
                }
              }
            },
            "url": {
              "raw": "http://localhost:8080/es/createDocument",
              "protocol": "http",
              "host": [
                "localhost"
              ],
              "port": "8080",
              "path": [
                "es",
                "createDocument"
              ]
            }
          },
          "response": []
        },
        {
          "name": "删除es索引",
          "request": {
            "method": "DELETE",
            "header": [],
            "url": {
              "raw": "http://localhost:8080/es/createIndex?index=springtest",
              "protocol": "http",
              "host": [
                "localhost"
              ],
              "port": "8080",
              "path": [
                "es",
                "createIndex"
              ],
              "query": [
                {
                  "key": "index",
                  "value": "springtest"
                }
              ]
            }
          },
          "response": []
        },
        {
          "name": "删除某个索引下的文档 （可批量）",
          "request": {
            "method": "DELETE",
            "header": [],
            "body": {
              "mode": "raw",
              "raw": "{\r\n    \"index\": \"user\",\r\n    \"ids\":[\"Zg1WlIsBV6jw3Pp3vwFd\"]\r\n}",
              "options": {
                "raw": {
                  "language": "json"
                }
              }
            },
            "url": {
              "raw": "http://localhost:8080/es/deleteDocument",
              "protocol": "http",
              "host": [
                "localhost"
              ],
              "port": "8080",
              "path": [
                "es",
                "deleteDocument"
              ]
            }
          },
          "response": []
        },
        {
          "name": "通过索引名称和id删除es文档",
          "request": {
            "method": "DELETE",
            "header": [],
            "url": {
              "raw": "http://localhost:8080/es/deleteDocumentByIndexAndId?index=user&id=1",
              "protocol": "http",
              "host": [
                "localhost"
              ],
              "port": "8080",
              "path": [
                "es",
                "deleteDocumentByIndexAndId"
              ],
              "query": [
                {
                  "key": "index",
                  "value": "user"
                },
                {
                  "key": "id",
                  "value": "1"
                }
              ]
            }
          },
          "response": []
        },
        {
          "name": "添加文档数据  批量+单个",
          "request": {
            "method": "POST",
            "header": [],
            "body": {
              "mode": "raw",
              "raw": "{\r\n    \"users\":[\r\n        {\r\n            \"id\":11,\r\n            \"name\": \"alice\",\r\n            \"age\": 21\r\n        }\r\n    ],\r\n    \"index\": \"user\"\r\n}",
              "options": {
                "raw": {
                  "language": "json"
                }
              }
            },
            "url": {
              "raw": "http://localhost:8080/es/addDocument",
              "protocol": "http",
              "host": [
                "localhost"
              ],
              "port": "8080",
              "path": [
                "es",
                "addDocument"
              ],
              "query": [
                {
                  "key": "index",
                  "value": "user",
                  "disabled": true
                },
                {
                  "key": "id",
                  "value": "1",
                  "disabled": true
                }
              ]
            }
          },
          "response": []
        },
        {
          "name": "修改索引文档的内容（可批量）",
          "request": {
            "method": "POST",
            "header": [],
            "body": {
              "mode": "raw",
              "raw": "  {\r\n    \"hashMap\":{\r\n                \"id\":3,\r\n                \"name\": \"alice\",\r\n                \"age\": 180,\r\n                \"birthday\": \"2002-01-03 00:00:00\"\r\n            }\r\n    ,\r\n    \"index\": \"user\"\r\n}\r\n",
              "options": {
                "raw": {
                  "language": "json"
                }
              }
            },
            "url": {
              "raw": "http://localhost:8080/es/updateDocument",
              "protocol": "http",
              "host": [
                "localhost"
              ],
              "port": "8080",
              "path": [
                "es",
                "updateDocument"
              ]
            }
          },
          "response": []
        },
        {
          "name": "修改某一条数据文档",
          "request": {
            "method": "POST",
            "header": [],
            "body": {
              "mode": "raw",
              "raw": "{\r\n    \"id\":2,\r\n    \"name\": \"旺旺\",\r\n    \"age\": 27\r\n}",
              "options": {
                "raw": {
                  "language": "json"
                }
              }
            },
            "url": {
              "raw": "http://localhost:8080/es/updateDocument",
              "protocol": "http",
              "host": [
                "localhost"
              ],
              "port": "8080",
              "path": [
                "es",
                "updateDocument"
              ]
            }
          },
          "response": []
        },
        {
          "name": "查询某个索引下的所有文档     es默认显示前10条",
          "request": {
            "method": "GET",
            "header": [],
            "url": {
              "raw": "http://localhost:8080/es/queryAllDocumentInAnIndex?index=user",
              "protocol": "http",
              "host": [
                "localhost"
              ],
              "port": "8080",
              "path": [
                "es",
                "queryAllDocumentInAnIndex"
              ],
              "query": [
                {
                  "key": "index",
                  "value": "user"
                }
              ]
            }
          },
          "response": []
        },
        {
          "name": "查询索引下所有的文档   分页显示",
          "request": {
            "method": "GET",
            "header": [],
            "url": {
              "raw": "http://localhost:8080/es/queryDocumentMatchAll?index=user&pageSize=20&currentPage=2",
              "protocol": "http",
              "host": [
                "localhost"
              ],
              "port": "8080",
              "path": [
                "es",
                "queryDocumentMatchAll"
              ],
              "query": [
                {
                  "key": "index",
                  "value": "user"
                },
                {
                  "key": "pageSize",
                  "value": "20"
                },
                {
                  "key": "currentPage",
                  "value": "2"
                }
              ]
            }
          },
          "response": []
        },
        {
          "name": "查询es中所有的index 名称",
          "request": {
            "method": "GET",
            "header": [],
            "url": {
              "raw": "http://localhost:8080/es/getAllIndexes",
              "protocol": "http",
              "host": [
                "localhost"
              ],
              "port": "8080",
              "path": [
                "es",
                "getAllIndexes"
              ]
            }
          },
          "response": []
        },
        {
          "name": "查询某个索引中有多少个文档",
          "request": {
            "method": "GET",
            "header": [],
            "url": {
              "raw": "http://localhost:8080/es/queryDocumentCount?index=user",
              "protocol": "http",
              "host": [
                "localhost"
              ],
              "port": "8080",
              "path": [
                "es",
                "queryDocumentCount"
              ],
              "query": [
                {
                  "key": "index",
                  "value": "user"
                }
              ]
            }
          },
          "response": []
        },
        {
          "name": "查看某个索引下的某1个文档（根据id查询）",
          "request": {
            "method": "GET",
            "header": [
              {
                "key": "token",
                "value": "caea2ecf-090a-4f9b-84e3-d9197212de6b",
                "type": "default"
              }
            ],
            "url": {
              "raw": "http://localhost:8080/es/queryDocumentById?index=user&id=1",
              "protocol": "http",
              "host": [
                "localhost"
              ],
              "port": "8080",
              "path": [
                "es",
                "queryDocumentById"
              ],
              "query": [
                {
                  "key": "index",
                  "value": "user"
                },
                {
                  "key": "id",
                  "value": "1"
                }
              ]
            }
          },
          "response": []
        },
        {
          "name": "根据ids查询多个文档  （使用的是terms查询）",
          "request": {
            "method": "GET",
            "header": [],
            "url": {
              "raw": "http://localhost:8080/es/queryDocumentByIds?index=user&ids=1,2,3",
              "protocol": "http",
              "host": [
                "localhost"
              ],
              "port": "8080",
              "path": [
                "es",
                "queryDocumentByIds"
              ],
              "query": [
                {
                  "key": "index",
                  "value": "user"
                },
                {
                  "key": "ids",
                  "value": "1,2,3"
                }
              ]
            }
          },
          "response": []
        },
        {
          "name": "es的模糊查询     不是mysql中的模糊查询  具体请看代码",
          "request": {
            "method": "GET",
            "header": [],
            "url": {
              "raw": "http://localhost:8080/es/getDocumentLike?index=alice&name=二五",
              "protocol": "http",
              "host": [
                "localhost"
              ],
              "port": "8080",
              "path": [
                "es",
                "getDocumentLike"
              ],
              "query": [
                {
                  "key": "index",
                  "value": "alice"
                },
                {
                  "key": "name",
                  "value": "二五"
                }
              ]
            }
          },
          "response": []
        },
        {
          "name": "es查询之match",
          "request": {
            "method": "GET",
            "header": [],
            "url": {
              "raw": "http://localhost:8080/es/queryDocumentMatch?index=alice&name=二五",
              "protocol": "http",
              "host": [
                "localhost"
              ],
              "port": "8080",
              "path": [
                "es",
                "queryDocumentMatch"
              ],
              "query": [
                {
                  "key": "index",
                  "value": "alice"
                },
                {
                  "key": "name",
                  "value": "二五"
                }
              ]
            }
          },
          "response": []
        },
        {
          "name": "es查询之multi_match     多字段匹配",
          "request": {
            "method": "GET",
            "header": [],
            "url": {
              "raw": "http://localhost:8080/es/queryDocumentMultiMatch?value=19&index=alice",
              "protocol": "http",
              "host": [
                "localhost"
              ],
              "port": "8080",
              "path": [
                "es",
                "queryDocumentMultiMatch"
              ],
              "query": [
                {
                  "key": "value",
                  "value": "19"
                },
                {
                  "key": "index",
                  "value": "alice"
                }
              ]
            }
          },
          "response": []
        },
        {
          "name": "es查询之match_phrase 短语查询  这个就有点像  mysql的like  %xxx% 了",
          "request": {
            "method": "GET",
            "header": [],
            "url": {
              "raw": "http://localhost:8080/es/queryDocumentMatchPhrase?value=二五&index=alice",
              "protocol": "http",
              "host": [
                "localhost"
              ],
              "port": "8080",
              "path": [
                "es",
                "queryDocumentMatchPhrase"
              ],
              "query": [
                {
                  "key": "value",
                  "value": "二五"
                },
                {
                  "key": "index",
                  "value": "alice"
                }
              ]
            }
          },
          "response": []
        },
        {
          "name": "es查询之should",
          "request": {
            "method": "GET",
            "header": [],
            "url": {
              "raw": "http://localhost:8080/es/queryDocumentShould?index=alice&values=张三,李四",
              "protocol": "http",
              "host": [
                "localhost"
              ],
              "port": "8080",
              "path": [
                "es",
                "queryDocumentShould"
              ],
              "query": [
                {
                  "key": "index",
                  "value": "alice"
                },
                {
                  "key": "values",
                  "value": "张三,李四"
                }
              ]
            }
          },
          "response": []
        }
      ]
    },
    {
      "name": "vecentek",
      "item": [
        {
          "name": "分片上传",
          "request": {
            "method": "POST",
            "header": [
              {
                "key": "token",
                "value": "bcac7ab9-713e-4dbe-8362-145d0409cea4",
                "type": "default"
              }
            ],
            "body": {
              "mode": "formdata",
              "formdata": [
                {
                  "key": "chunk",
                  "value": " 1",
                  "type": "text"
                },
                {
                  "key": "chunks",
                  "value": " 1",
                  "type": "text"
                },
                {
                  "key": "name",
                  "value": " es",
                  "type": "text"
                },
                {
                  "key": "size",
                  "value": " 70627",
                  "type": "text"
                },
                {
                  "key": "taskId",
                  "value": " 794",
                  "type": "text"
                },
                {
                  "key": "type",
                  "value": " zip",
                  "type": "text"
                },
                {
                  "key": "componentFileLabel",
                  "value": " 上传的日志文件为：",
                  "type": "text"
                },
                {
                  "key": "taskId",
                  "value": " 794",
                  "type": "text"
                },
                {
                  "key": "file",
                  "type": "file",
                  "src": "/D:/workSpace/fileForWork/app-华茂测试(1).zip"
                }
              ],
              "options": {
                "raw": {
                  "language": "json"
                }
              }
            },
            "url": {
              "raw": "http://192.168.1.150:9527/api/testPlatform/mcnt/sliceUploadFile",
              "protocol": "http",
              "host": [
                "192",
                "168",
                "1",
                "150"
              ],
              "port": "9527",
              "path": [
                "api",
                "testPlatform",
                "mcnt",
                "sliceUploadFile"
              ]
            }
          },
          "response": []
        },
        {
          "name": "进度查询",
          "request": {
            "method": "POST",
            "header": [
              {
                "key": "token",
                "value": "a04c0ac2-5642-4642-9c3a-62cc2b496ae9",
                "type": "default"
              }
            ],
            "body": {
              "mode": "raw",
              "raw": "{}",
              "options": {
                "raw": {
                  "language": "json"
                }
              }
            },
            "url": {
              "raw": "http://localhost:9528/api/mcnt/engine/getProgress",
              "protocol": "http",
              "host": [
                "localhost"
              ],
              "port": "9528",
              "path": [
                "api",
                "mcnt",
                "engine",
                "getProgress"
              ]
            }
          },
          "response": []
        },
        {
          "name": "登录",
          "protocolProfileBehavior": {
            "disabledSystemHeaders": {
              "content-type": true
            }
          },
          "request": {
            "method": "POST",
            "header": [
              {
                "key": "Content-Type",
                "value": "application/json",
                "type": "default"
              }
            ],
            "body": {
              "mode": "raw",
              "raw": "{\"username\":\"yangl\",\"password\":\"e10adc3949ba59abbe56e057f20f883e\"}"
            },
            "url": {
              "raw": "http://192.168.1.150:9527/api/login",
              "protocol": "http",
              "host": [
                "192",
                "168",
                "1",
                "150"
              ],
              "port": "9527",
              "path": [
                "api",
                "login"
              ]
            }
          },
          "response": []
        }
      ]
    }
  ]
}